{
    "KPlugin": {
        "Authors": [
            {
                "Email": "kde@davidedmundson.co.uk",
                "Name": "David Edmundson",
                "Name[ar]": "David Edmundson",
                "Name[az]": "David Edmundson",
                "Name[bg]": "David Edmundson",
                "Name[ca@valencia]": "David Edmundson",
                "Name[ca]": "David Edmundson",
                "Name[cs]": "David Edmundson",
                "Name[da]": "David Edmundson",
                "Name[de]": "David Edmundson",
                "Name[en_GB]": "David Edmundson",
                "Name[es]": "David Edmundson",
                "Name[eu]": "David Edmundson",
                "Name[fi]": "David Edmundson",
                "Name[fr]": "David Edmundson",
                "Name[hu]": "David Edmundson",
                "Name[ia]": "David Edmundson",
                "Name[id]": "David Edmundson",
                "Name[it]": "David Edmundson",
                "Name[ka]": "დავიდ ედმუნდსონი",
                "Name[ko]": "David Edmundson",
                "Name[lt]": "David Edmundson",
                "Name[nl]": "David Edmundson",
                "Name[nn]": "David Edmundson",
                "Name[pl]": "David Edmundson",
                "Name[pt]": "David Edmundson",
                "Name[pt_BR]": "David Edmundson",
                "Name[ro]": "David Edmundson",
                "Name[ru]": "David Edmundson",
                "Name[sk]": "David Edmundson",
                "Name[sl]": "David Edmundson",
                "Name[sv]": "David Edmundson",
                "Name[ta]": "டேவிட் எட்மண்டுஸன்",
                "Name[tr]": "David Edmundson",
                "Name[uk]": "David Edmundson",
                "Name[vi]": "David Edmundson",
                "Name[x-test]": "xxDavid Edmundsonxx",
                "Name[zh_CN]": "David Edmundson"
            }
        ],
        "Description": "Open devices and folder bookmarks",
        "Description[ar]": "افتح علامات الأجهزة والمجلدات",
        "Description[az]": "Qurğu və qovluq əlfəcinlərinin açılması",
        "Description[bg]": "Отваря отметки на устройства и папки",
        "Description[ca@valencia]": "Obri els punts dels dispositius i dels preferits",
        "Description[ca]": "Obre els punts dels dispositius i dels preferits",
        "Description[cs]": "Otevřít záložky zařízení a složek",
        "Description[da]": "Åbn enheder og mappebogmærker",
        "Description[de]": "Geräte und Lesezeichen für Ordner öffnen",
        "Description[en_GB]": "Open devices and folder bookmarks",
        "Description[es]": "Abrir marcadores de dispositivos y carpetas",
        "Description[eu]": "Ireki gailuen eta karpeten laster-markak",
        "Description[fi]": "Avaa laitteita ja kansiokirjanmerkkejä",
        "Description[fr]": "Ouvrir les signets de périphériques et de dossiers",
        "Description[hu]": "Eszközökre és mappákra mutató könyvjelzők megnyitása",
        "Description[ia]": "Aperi dispositivos e marcatores de libros de dossieres",
        "Description[id]": "Buka perangkat dan markah folder",
        "Description[it]": "Apri i segnalibri dei dispositivi e delle cartelle",
        "Description[ko]": "장치와 폴더 책갈피 열기",
        "Description[lt]": "Atverti įrenginių ir aplankų žymeles",
        "Description[nl]": "Apparaten- en mappenbladwijzers openen",
        "Description[nn]": "Opna einingar og mappebokmerke",
        "Description[pa]": "ਡਿਵਾਈਸ ਅਤੇ ਫੋਲਡਰ ਬੁੱਕਮਾਰਕ ਖੋਲ੍ਹੋ",
        "Description[pl]": "Otwiera urządzenia i katalogi ze skrótów",
        "Description[pt]": "Abrir os favoritos dos dispositivos e pastas",
        "Description[pt_BR]": "Abre os favoritos dos dispositivos e pastas",
        "Description[ro]": "Deschide semne de carte pentru dispozitive și dosare",
        "Description[ru]": "Переход по закладкам для устройств и папок",
        "Description[sk]": "Otváranie zariadení a záložiek priečinkov",
        "Description[sl]": "Odpri naprave in zaznamke map",
        "Description[sv]": "Öppna enhets- och katalogbokmärken",
        "Description[ta]": "சாதன மற்றும் அடைவு நினைவுக்குறிகளை திறக்கும் சேவை",
        "Description[tr]": "Aygıt ve klasör yer imlerini aç",
        "Description[uk]": "Відкриття пристроїв та закладок на теки",
        "Description[vi]": "Mở thiết bị và dấu nhớ thư mục",
        "Description[x-test]": "xxOpen devices and folder bookmarksxx",
        "Description[zh_CN]": "打开设备和文件夹书签",
        "EnabledByDefault": true,
        "Icon": "user-home",
        "Id": "places",
        "License": "LGPL",
        "Name": "Places",
        "Name[ar]": "أماكن",
        "Name[ast]": "Llugares",
        "Name[az]": "Giriş Nöqtələri",
        "Name[be@latin]": "Miescy",
        "Name[bg]": "Места",
        "Name[bn]": "স্থান",
        "Name[bs]": "Mjesta",
        "Name[ca@valencia]": "Llocs",
        "Name[ca]": "Llocs",
        "Name[cs]": "Místa",
        "Name[csb]": "Place",
        "Name[da]": "Steder",
        "Name[de]": "Orte",
        "Name[el]": "Τοποθεσίες",
        "Name[en_GB]": "Places",
        "Name[eo]": "Lokoj",
        "Name[es]": "Lugares",
        "Name[et]": "Asukohad",
        "Name[eu]": "Lekuak",
        "Name[fi]": "Sijainnit",
        "Name[fr]": "Emplacements",
        "Name[fy]": "Places",
        "Name[ga]": "Áiteanna",
        "Name[gl]": "Lugares",
        "Name[gu]": "જગ્યાઓ",
        "Name[he]": "מקומות",
        "Name[hi]": "स्थान",
        "Name[hne]": "प्लेसेस",
        "Name[hr]": "Mjesta",
        "Name[hsb]": "Městna",
        "Name[hu]": "Helyek",
        "Name[ia]": "Placias",
        "Name[id]": "Tempat",
        "Name[is]": "Staðir",
        "Name[it]": "Risorse",
        "Name[ja]": "場所",
        "Name[ka]": "ადგილები",
        "Name[kk]": "Орындар",
        "Name[km]": "កន្លែង",
        "Name[kn]": "ಸ್ಥಳಗಳು",
        "Name[ko]": "위치",
        "Name[ku]": "Cih",
        "Name[lt]": "Vietos",
        "Name[lv]": "Vietas",
        "Name[mai]": "स्थान",
        "Name[mk]": "Места",
        "Name[ml]": "സ്ഥലങ്ങള്‍",
        "Name[mr]": "जागा",
        "Name[nb]": "Steder",
        "Name[nds]": "Steden",
        "Name[nl]": "Locaties",
        "Name[nn]": "Stadar",
        "Name[or]": "ସ୍ଥାନଗୁଡ଼ିକ",
        "Name[pa]": "ਥਾਵਾਂ",
        "Name[pl]": "Miejsca",
        "Name[pt]": "Locais",
        "Name[pt_BR]": "Locais",
        "Name[ro]": "Locuri",
        "Name[ru]": "Точки входа",
        "Name[si]": "ස්ථාන",
        "Name[sk]": "Miesta",
        "Name[sl]": "Mesta",
        "Name[sr@ijekavian]": "мјеста",
        "Name[sr@ijekavianlatin]": "mjesta",
        "Name[sr@latin]": "mesta",
        "Name[sr]": "места",
        "Name[sv]": "Platser",
        "Name[ta]": "இடங்கள்",
        "Name[tg]": "Ҷойҳо",
        "Name[th]": "ที่หลัก ๆ",
        "Name[tr]": "Konumlar",
        "Name[ug]": "ئورۇنلار",
        "Name[uk]": "Місця",
        "Name[vi]": "Địa điểm",
        "Name[wa]": "Plaeces",
        "Name[x-test]": "xxPlacesxx",
        "Name[zh_CN]": "常用位置",
        "Name[zh_TW]": "地方"
    }
}
